{
  "debug": true,
  "loggers": [
    {
      "type": "file",
      "level": "info",
      "encoder": "console",
      "properties": {
        "filePath": "logs/live.log",
        "maxSize": "30",
        "maxAge": "7",
        "maxBackups": "7",
        "compress": "false"
      },
      "enable": true
    },
    {
      "type": "syslog",
      "level": "info",
      "encoder": "json",
      "properties": {
        "appName": "liveServer",
        "serverAddress": "localhost",
        "protocol": "udp"
      },
      "enable": false
    },
    {
      "type": "stdout",
      "level": "info",
      "encoder": "console",
      "properties": {},
      "enable": true
    }
  ]
}
