module bitbucket.org/xenc_cbc/go-cbc/v2

go 1.20

require (
	github.com/disintegration/imaging v1.6.2
	github.com/elithrar/simple-scrypt v1.3.0
	github.com/foolin/goview v0.3.0
	github.com/gin-contrib/cors v1.7.2
	github.com/gin-contrib/sessions v1.0.1
	github.com/gin-gonic/gin v1.10.0
	github.com/go-playground/validator/v10 v10.20.0
	github.com/go-stomp/stomp v2.1.4+incompatible
	github.com/gomodule/redigo v2.0.0+incompatible
	github.com/gorilla/websocket v1.5.1
	github.com/imperfectgo/zap-syslog v0.1.1
	github.com/jackc/pgx/v5 v5.6.0
	github.com/jmoiron/sqlx v1.4.0
	github.com/natefinch/lumberjack v2.0.0+incompatible
	github.com/stretchr/testify v1.9.0
	go.uber.org/zap v1.27.0
)

require (
	cloud.google.com/go/compute/metadata v0.3.0 // indirect
	github.com/BurntSushi/toml v0.3.1 // indirect
	github.com/boj/redistore v0.0.0-20180917114910-cd5dcc76aeff // indirect
	github.com/bytedance/sonic v1.11.6 // indirect
	github.com/bytedance/sonic/loader v0.1.1 // indirect
	github.com/cloudwego/base64x v0.1.4 // indirect
	github.com/cloudwego/iasm v0.2.0 // indirect
	github.com/davecgh/go-spew v1.1.1 // indirect
	github.com/gabriel-vasile/mimetype v1.4.3 // indirect
	github.com/goccy/go-json v0.10.2 // indirect
	github.com/jackc/pgpassfile v1.0.0 // indirect
	github.com/jackc/pgservicefile v0.0.0-20221227161230-091c0ba34f0a // indirect
	github.com/jackc/puddle/v2 v2.2.1 // indirect
	github.com/klauspost/cpuid/v2 v2.2.7 // indirect
	github.com/pelletier/go-toml/v2 v2.2.2 // indirect
	github.com/pmezard/go-difflib v1.0.0 // indirect
	github.com/twitchyliquid64/golang-asm v0.15.1 // indirect
	golang.org/x/arch v0.8.0 // indirect
	golang.org/x/net v0.25.0 // indirect
	golang.org/x/sync v0.7.0 // indirect
	golang.org/x/text v0.15.0 // indirect
	google.golang.org/protobuf v1.34.1 // indirect
	gopkg.in/yaml.v3 v3.0.1 // indirect
)

require (
	github.com/gin-contrib/sse v0.1.0 // indirect
	github.com/go-playground/locales v0.14.1 // indirect
	github.com/go-playground/universal-translator v0.18.1 // indirect
	github.com/gorilla/context v1.1.2 // indirect
	github.com/gorilla/securecookie v1.1.2 // indirect
	github.com/gorilla/sessions v1.2.2 // indirect
	github.com/json-iterator/go v1.1.12 // indirect
	github.com/leodido/go-urn v1.4.0 // indirect
	github.com/lib/pq v1.10.9
	github.com/mattn/go-isatty v0.0.20 // indirect
	github.com/modern-go/concurrent v0.0.0-20180306012644-bacd9c7ef1dd // indirect
	github.com/modern-go/reflect2 v1.0.2 // indirect
	github.com/shopspring/decimal v1.4.0
	github.com/ugorji/go/codec v1.2.12 // indirect
	go.uber.org/multierr v1.11.0 // indirect
	golang.org/x/crypto v0.23.0 // indirect
	golang.org/x/exp v0.0.0-20240529005216-23cca8864a10
	golang.org/x/image v0.16.0 // indirect
	golang.org/x/oauth2 v0.20.0
	golang.org/x/sys v0.20.0 // indirect
	gopkg.in/natefinch/lumberjack.v2 v2.0.0 // indirect
	gopkg.in/yaml.v2 v2.4.0 // indirect
)
